<svg xmlns="http://www.w3.org/2000/svg" 
width="400px" 
height="400px"
viewBox="221.807 89.47 440 621.061" 
enable-background="new 221.807 89.47 440 621.061">
<filter id="a" width="150%" height="150%" x="-5%" y="-5%">
    <feFlood flood-color="#000" result="floodFill" flood-opacity=".5"/>
    <feComposite in="floodFill" in2="SourceAlpha" operator="in" result="coloredAlpha"/>
    <feGaussianBlur in="coloredAlpha" result="blur" stdDeviation="8"/>
    <feComposite in="blur" in2="SourceGraphic" operator="out" result="maskedOffsetBlur"/>
    <feMerge>
        <feMergeNode in="maskedOffsetBlur"/>
        <feMergeNode in="SourceGraphic"/>
    </feMerge>
</filter>
<g filter="url(#a)">
    <path fill="#e44d26" d="M261.849 660.647l-40.042-449.125h440l-40.086 449.054-180.184 49.954z"/>
    <path fill="#f16529" d="M441.807 672.348l145.596-40.367 34.258-383.735H441.807z"/>
    <path fill="#ebebeb" d="M441.807 414.82h-72.888l-5.035-56.406h77.923V303.33H303.683l1.32 14.778 13.538 151.794h123.266zM441.807 557.876l-.242.066-61.346-16.566-3.922-43.93h-55.294l7.718 86.489 112.834 31.323.252-.071z"/>
    <path d="M262.745 89.47h27.992v27.656h25.606V89.47h27.993v83.75h-27.993v-28.044h-25.606v28.044h-27.99l-.002-83.75zM381.149 117.244h-24.642V89.47H433.8v27.774h-24.654v55.976H381.15v-55.976h-.001zM446.065 89.47h29.19l17.955 29.428 17.938-29.428h29.2v83.75h-27.882v-41.512l-19.259 29.778h-.481l-19.272-29.778v41.512h-27.39V89.47zM554.277 89.47h28v56.068h39.368v27.682h-67.368V89.47z"/>
    <path fill="#fff" d="M441.617 414.82v55.082h67.83l-6.395 71.44-61.435 16.58v57.307l112.924-31.294.826-9.309 12.946-145.014 1.344-14.792h-14.842zM441.617 303.33v55.084H574.67l1.103-12.382 2.51-27.924 1.318-14.778z"/>
</g>
</svg>